Example 4: Adverse Events Table
…
lib_load: library 'sdtm' loaded

Filter DM data

datastep: columns decreased from 24 to 3

# A tibble: 85 × 3
   USUBJID    ARM   ARMCD
   <chr>      <chr> <chr>
 1 ABC-01-049 ARM D 4    
 2 ABC-01-050 ARM B 2    
 3 ABC-01-051 ARM A 1    
 4 ABC-01-052 ARM C 3    
 5 ABC-01-053 ARM B 2    
 6 ABC-01-054 ARM D 4    
 7 ABC-01-055 ARM C 3    
 8 ABC-01-056 ARM A 1    
 9 ABC-01-113 ARM D 4    
10 ABC-01-114 ARM B 2    
# ℹ 75 more rows
# ℹ Use `print(n = ...)` to see more rows
…
# A tibble: 1 × 6
  VAR   STAT  `ARM A` `ARM B` `ARM C` `ARM D`
  <chr> <chr>   <dbl>   <dbl>   <dbl>   <dbl>
1 ARM   CNT        20      21      21      23

Create lookup for AE severity

    MILD MODERATE   SEVERE 
       1        2        3 

Prepare table data

datastep: columns decreased from 27 to 6

# A tibble: 145 × 6
   USUBJID    ARM   AESEV    AESEVN AESOC   AEDECOD
   <chr>      <chr> <chr>     <dbl> <chr>   <chr>  
 1 ABC-01-049 ARM D MODERATE      2 Invest… BLOOD …
 2 ABC-01-049 ARM D MODERATE      2 Invest… BLOOD …
 3 ABC-01-049 ARM D MILD          1 Muscul… MUSCUL…
 4 ABC-01-049 ARM D MILD          1 Nervou… HEADAC…
 5 ABC-01-049 ARM D MODERATE      2 Invest… LABORA…
 6 ABC-01-050 ARM B MILD          1 Respir… UPPER …
 7 ABC-01-050 ARM B MILD          1 Skin a… RASH   
 8 ABC-01-051 ARM A MILD          1 Nervou… HEADAC…
 9 ABC-01-051 ARM A MILD          1 Nervou… HEADAC…
10 ABC-01-051 ARM A MILD          1 Genera… INFLUE…
# ℹ 135 more rows
# ℹ Use `print(n = ...)` to see more rows
…
=========================================================================
Perform Calculations
=========================================================================

Get SOC Frequencies

proc_freq: input data set 145 rows and 6 columns
           tables: AESOC * AESEV
           by: ARM
           view: TRUE
           output: 1 datasets

# A tibble: 240 × 8
   BY    VAR1  VAR2  CAT1   CAT2      N   CNT   PCT
   <chr> <chr> <chr> <chr>  <chr> <dbl> <dbl> <dbl>
 1 ARM A AESOC AESEV Blood… MILD     37     0     0
 2 ARM A AESOC AESEV Blood… MODE…    37     0     0
 3 ARM A AESOC AESEV Blood… SEVE…    37     0     0
 4 ARM A AESOC AESEV Cardi… MILD     37     0     0
 5 ARM A AESOC AESEV Cardi… MODE…    37     0     0
 6 ARM A AESOC AESEV Cardi… SEVE…    37     0     0
 7 ARM A AESOC AESEV Conge… MILD     37     0     0
 8 ARM A AESOC AESEV Conge… MODE…    37     0     0
 9 ARM A AESOC AESEV Conge… SEVE…    37     0     0
10 ARM A AESOC AESEV Ear a… MILD     37     0     0
# ℹ 230 more rows
# ℹ Use `print(n = ...)` to see more rows

Combine columns for SOC

datastep: columns decreased from 8 to 7

# A tibble: 240 × 7
   BY    VAR   CAT        CAT2      N VARORD CNTPCT
   <chr> <chr> <chr>      <chr> <dbl>  <dbl> <chr> 
 1 ARM A AESOC Blood and… Mild     37      1 "  0 …
 2 ARM A AESOC Blood and… Mode…    37      1 "  0 …
 3 ARM A AESOC Blood and… Seve…    37      1 "  0 …
 4 ARM A AESOC Cardiac d… Mild     37      1 "  0 …
 5 ARM A AESOC Cardiac d… Mode…    37      1 "  0 …
 6 ARM A AESOC Cardiac d… Seve…    37      1 "  0 …
 7 ARM A AESOC Congenita… Mild     37      1 "  0 …
 8 ARM A AESOC Congenita… Mode…    37      1 "  0 …
 9 ARM A AESOC Congenita… Seve…    37      1 "  0 …
10 ARM A AESOC Ear and l… Mild     37      1 "  0 …
# ℹ 230 more rows
# ℹ Use `print(n = ...)` to see more rows
…
Get PT Frequencies

proc_freq: input data set 145 rows and 6 columns
           tables: AEDECOD * AESEV
           by: ARM
           view: TRUE
           output: 1 datasets

# A tibble: 876 × 7
   BY    VAR1    VAR2  CAT1       CAT2    CNT   PCT
   <chr> <chr>   <chr> <chr>      <chr> <dbl> <dbl>
 1 ARM A AEDECOD AESEV ANXIETY    MILD      0  0   
 2 ARM A AEDECOD AESEV ANXIETY    MODE…     0  0   
 3 ARM A AEDECOD AESEV ANXIETY    SEVE…     0  0   
 4 ARM A AEDECOD AESEV APPLICATI… MILD      0  0   
 5 ARM A AEDECOD AESEV APPLICATI… MODE…     0  0   
 6 ARM A AEDECOD AESEV APPLICATI… SEVE…     0  0   
 7 ARM A AEDECOD AESEV APPLICATI… MILD      0  0   
 8 ARM A AEDECOD AESEV APPLICATI… MODE…     0  0   
 9 ARM A AEDECOD AESEV APPLICATI… SEVE…     0  0   
10 ARM A AEDECOD AESEV BACK PAIN  MILD      2  5.41
# ℹ 866 more rows
# ℹ Use `print(n = ...)` to see more rows

Get unique SOC and PT combinations

proc_sort: input data set 73 rows and 6 columns
           by: AESOC AEDECOD
           keep: AESOC AEDECOD
           order: a a
           options: nodupkey
           output data set 73 rows and 2 columns

# A tibble: 73 × 2
   AESOC                                    AEDECOD
   <chr>                                    <chr>  
 1 Blood and lymphatic system disorders     NEUTRO…
 2 Cardiac disorders                        PALPIT…
 3 Cardiac disorders                        SINUS …
 4 Congenital, familial and genetic disord… DERMOI…
 5 Ear and labyrinth disorders              VERTIGO
 6 Endocrine disorders                      PARATH…
 7 Gastrointestinal disorders               DIARRH…
 8 Gastrointestinal disorders               FOOD P…
 9 Gastrointestinal disorders               TOOTHA…
10 Gastrointestinal disorders               VOMITI…
# ℹ 63 more rows
# ℹ Use `print(n = ...)` to see more rows

Combine columns for PT

datastep: columns decreased from 7 to 6

# A tibble: 876 × 6
   BY    VAR     CAT            CAT2  VARORD CNTPCT
   <chr> <chr>   <chr>          <chr>  <dbl> <chr> 
 1 ARM A AEDECOD ANXIETY        Mild       2 "  0 …
 2 ARM A AEDECOD ANXIETY        Mode…      2 "  0 …
 3 ARM A AEDECOD ANXIETY        Seve…      2 "  0 …
 4 ARM A AEDECOD APPLICATION S… Mild       2 "  0 …
 5 ARM A AEDECOD APPLICATION S… Mode…      2 "  0 …
 6 ARM A AEDECOD APPLICATION S… Seve…      2 "  0 …
 7 ARM A AEDECOD APPLICATION S… Mild       2 "  0 …
 8 ARM A AEDECOD APPLICATION S… Mode…      2 "  0 …
 9 ARM A AEDECOD APPLICATION S… Seve…      2 "  0 …
10 ARM A AEDECOD BACK PAIN      Mild       2 "  2 …
# ℹ 866 more rows
# ℹ Use `print(n = ...)` to see more rows

Pivot PT frequencies

proc_transpose: input data set 876 rows and 6 columns
                by: CAT
                var: CNTPCT
                id: BY CAT2
                copy: VAR VARORD
                name: NAME
                output dataset 73 rows and 16 columns

# A tibble: 73 × 16
   VAR     CAT            VARORD NAME  `ARM A.Mild`
   <chr>   <chr>           <dbl> <chr> <chr>       
 1 AEDECOD ANXIETY             2 CNTP… "  0 (  0.0…
 2 AEDECOD APPLICATION S…      2 CNTP… "  0 (  0.0…
 3 AEDECOD APPLICATION S…      2 CNTP… "  0 (  0.0…
 4 AEDECOD BACK PAIN           2 CNTP… "  2 (  5.4…
 5 AEDECOD BASAL CELL CA…      2 CNTP… "  0 (  0.0…
 6 AEDECOD BLOOD GLUCOSE…      2 CNTP… "  0 (  0.0…
 7 AEDECOD BLOOD PARATHY…      2 CNTP… "  0 (  0.0…
 8 AEDECOD BLOOD PARATHY…      2 CNTP… "  0 (  0.0…
 9 AEDECOD BLOOD PRESSUR…      2 CNTP… "  1 (  2.7…
10 AEDECOD BLOOD TRIGLYC…      2 CNTP… "  0 (  0.0…
# ℹ 63 more rows
# ℹ 11 more variables: `ARM A.Moderate` <chr>,
#   `ARM A.Severe` <chr>, `ARM B.Mild` <chr>,
#   `ARM B.Moderate` <chr>, `ARM B.Severe` <chr>,
#   `ARM C.Mild` <chr>, `ARM C.Moderate` <chr>,
#   `ARM C.Severe` <chr>, `ARM D.Mild` <chr>,
#   `ARM D.Moderate` <chr>, `ARM D.Severe` <chr>
# ℹ Use `print(n = ...)` to see more rows

Join in SOC

datastep: columns increased from 16 to 17

# A tibble: 73 × 17
   VAR     CAT2           VARORD NAME  `ARM A.Mild`
   <chr>   <chr>           <dbl> <chr> <chr>       
 1 AEDECOD Anxiety             2 CNTP… "  0 (  0.0…
 2 AEDECOD Application S…      2 CNTP… "  0 (  0.0…
 3 AEDECOD Application S…      2 CNTP… "  0 (  0.0…
 4 AEDECOD Back Pain           2 CNTP… "  2 (  5.4…
 5 AEDECOD Basal Cell Ca…      2 CNTP… "  0 (  0.0…
 6 AEDECOD Blood Glucose…      2 CNTP… "  0 (  0.0…
 7 AEDECOD Blood Parathy…      2 CNTP… "  0 (  0.0…
 8 AEDECOD Blood Parathy…      2 CNTP… "  0 (  0.0…
 9 AEDECOD Blood Pressur…      2 CNTP… "  1 (  2.7…
10 AEDECOD Blood Triglyc…      2 CNTP… "  0 (  0.0…
# ℹ 63 more rows
# ℹ 12 more variables: `ARM A.Moderate` <chr>,
#   `ARM A.Severe` <chr>, `ARM B.Mild` <chr>,
#   `ARM B.Moderate` <chr>, `ARM B.Severe` <chr>,
#   `ARM C.Mild` <chr>, `ARM C.Moderate` <chr>,
#   `ARM C.Severe` <chr>, `ARM D.Mild` <chr>,
#   `ARM D.Moderate` <chr>, …
# ℹ Use `print(n = ...)` to see more rows

Stack SOC and PT counts

datastep: columns started with 16 and ended with 16

# A tibble: 93 × 16
   VAR   CAT              CAT2  VARORD `ARM A.Mild`
   <chr> <chr>            <chr>  <dbl> <chr>       
 1 AESOC Blood and lymph… <NA>       1 "  0 (  0.0…
 2 AESOC Cardiac disorde… <NA>       1 "  0 (  0.0…
 3 AESOC Congenital, fam… <NA>       1 "  0 (  0.0…
 4 AESOC Ear and labyrin… <NA>       1 "  0 (  0.0…
 5 AESOC Endocrine disor… <NA>       1 "  0 (  0.0…
 6 AESOC Gastrointestina… <NA>       1 "  0 (  0.0…
 7 AESOC General disorde… <NA>       1 "  2 (  5.4…
 8 AESOC Infections and … <NA>       1 "  7 ( 18.9…
 9 AESOC Injury, poisoni… <NA>       1 "  0 (  0.0…
10 AESOC Investigations   <NA>       1 "  4 ( 10.8…
# ℹ 83 more rows
# ℹ 11 more variables: `ARM A.Moderate` <chr>,
#   `ARM A.Severe` <chr>, `ARM B.Mild` <chr>,
#   `ARM B.Moderate` <chr>, `ARM B.Severe` <chr>,
#   `ARM C.Mild` <chr>, `ARM C.Moderate` <chr>,
#   `ARM C.Severe` <chr>, `ARM D.Mild` <chr>,
#   `ARM D.Moderate` <chr>, `ARM D.Severe` <chr>
# ℹ Use `print(n = ...)` to see more rows

proc_sort: input data set 93 rows and 16 columns
           by: CAT VARORD CAT2
           keep: VAR CAT CAT2 VARORD ARM A.Mild ARM A.Moderate ARM A.Severe ARM B.Mild ARM B.Moderate ARM B.Severe ARM C.Mild ARM C.Moderate ARM C.Severe ARM D.Mild ARM D.Moderate ARM D.Severe
           order: a a a
           output data set 93 rows and 16 columns

# A tibble: 93 × 16
   VAR     CAT            CAT2  VARORD `ARM A.Mild`
   <chr>   <chr>          <chr>  <dbl> <chr>       
 1 AESOC   Blood and lym… <NA>       1 "  0 (  0.0…
 2 AEDECOD Blood and lym… Neut…      2 "  0 (  0.0…
 3 AESOC   Cardiac disor… <NA>       1 "  0 (  0.0…
 4 AEDECOD Cardiac disor… Palp…      2 "  0 (  0.0…
 5 AEDECOD Cardiac disor… Sinu…      2 "  0 (  0.0…
 6 AESOC   Congenital, f… <NA>       1 "  0 (  0.0…
 7 AEDECOD Congenital, f… Derm…      2 "  0 (  0.0…
 8 AESOC   Ear and labyr… <NA>       1 "  0 (  0.0…
 9 AEDECOD Ear and labyr… Vert…      2 "  0 (  0.0…
10 AESOC   Endocrine dis… <NA>       1 "  0 (  0.0…
# ℹ 83 more rows
# ℹ 11 more variables: `ARM A.Moderate` <chr>,
#   `ARM A.Severe` <chr>, `ARM B.Mild` <chr>,
#   `ARM B.Moderate` <chr>, `ARM B.Severe` <chr>,
#   `ARM C.Mild` <chr>, `ARM C.Moderate` <chr>,
#   `ARM C.Severe` <chr>, `ARM D.Mild` <chr>,
#   `ARM D.Moderate` <chr>, `ARM D.Severe` <chr>
# ℹ Use `print(n = ...)` to see more rows
…
=========================================================================
Create final data frame
=========================================================================

datastep: columns increased from 14 to 16

# A tibble: 94 × 16
   VAR     CAT            CAT2  VARORD `ARM A.Mild`
   <chr>   <chr>          <chr>  <dbl> <chr>       
 1 AESEV   All Adverse E… <NA>      NA " 27 ( 73.0…
 2 AESOC   Blood and lym… <NA>       1 "  0 (  0.0…
 3 AEDECOD Blood and lym… Neut…      2 "  0 (  0.0…
 4 AESOC   Cardiac disor… <NA>       1 "  0 (  0.0…
 5 AEDECOD Cardiac disor… Palp…      2 "  0 (  0.0…
 6 AEDECOD Cardiac disor… Sinu…      2 "  0 (  0.0…
 7 AESOC   Congenital, f… <NA>       1 "  0 (  0.0…
 8 AEDECOD Congenital, f… Derm…      2 "  0 (  0.0…
 9 AESOC   Ear and labyr… <NA>       1 "  0 (  0.0…
10 AEDECOD Ear and labyr… Vert…      2 "  0 (  0.0…
# ℹ 84 more rows
# ℹ 11 more variables: `ARM A.Moderate` <chr>,
#   `ARM A.Severe` <chr>, `ARM B.Mild` <chr>,
#   `ARM B.Moderate` <chr>, `ARM B.Severe` <chr>,
#   `ARM C.Mild` <chr>, `ARM C.Moderate` <chr>,
#   `ARM C.Severe` <chr>, `ARM D.Mild` <chr>,
#   `ARM D.Moderate` <chr>, `ARM D.Severe` <chr>
# ℹ Use `print(n = ...)` to see more rows
…
